%YAML 1.1
%TAG !u! tag:unity3d.com,2011:
--- !u!114 &11400000
MonoBehaviour:
  m_ObjectHideFlags: 0
  m_CorrespondingSourceObject: {fileID: 0}
  m_PrefabInstance: {fileID: 0}
  m_PrefabAsset: {fileID: 0}
  m_GameObject: {fileID: 0}
  m_Enabled: 1
  m_EditorHideFlags: 0
  m_Script: {fileID: 11500000, guid: 9d487a0cd4ea5aa418b3a96d59a79649, type: 3}
  m_Name: 1 Ratu Boko
  m_EditorClassIdentifier: 
  nama: Candi Ratu Boko
  deskripsi: " \tCandi Ratu Boko adalah kompleks istana megah yang dibangun pada
    abad ke-8. Candi Ratu Boko lebih mirip istana atau kraton ketimbang candi. Ini
    karena fungsinya dahulu yang bukan hanya tempat ibadah, tapi juga benteng pertahanan.
    Ratu Boko terletak 196 meter di atas permukaan laut. Ratu Boko didirikan di masa
    pemerintahan Rakai Panangkaran. Hal ini dapat dilihat di Prasasti Kalasan tahun
    779 Masehi, Prasati Mantyasih 907 Masehi, dan Prasasti Wanua Tengah III tahun
    908 Masehi. Rakai Panangkaran adalah pengikut Budha, namun di kompleks Ratu Boko
    terdapat unsur-unsur Hindu yang memuja dewa Siwa. Menurut para ahli, ini membuktikan
    adanya toleransi beragama pada masa itu.\r\n \tTiket Masuk Candi Ratu Boko 2018\r\nRp
    40.000 (dewasa)\r\nRp 20.000 (anak)\r\n \tJam Buka Candi Ratu Boko\r\nSenin -
    Minggu: pukul 06.00 - 17.00 WIB\r"
  mapsSpirte: {fileID: 21300000, guid: b119c981ae31b6d41bd8def95022e2a8, type: 3}
  modelObject: {fileID: 919132149155446097, guid: ff361a8fc052b02428a592551101c400,
    type: 3}
